{
	"additionalNodes": [ {
		"children": [ {
			"children": [],
			"id": "Qim0U4i3dO5xn2FHOoWUcmjKmTqnmX8w",
			"nodeType": "luaCommand",
			"parameters": [ {
				"name": "var",
				"value": "test"
			}, {
				"name": "value",
				"value": "bb.convoyPointmanPos:Distance(closestMetalSpot)"
			}, {
				"name": "scriptName",
				"value": "store"
			} ],
			"scriptName": "store"
		} ],
		"id": "gOeL1HV8joYmAZ0cG7rbDoKrIvLcx2U8",
		"nodeType": "repeat",
		"parameters": []
	} ],
	"additionalParameters": {
		"root": {
			"height": 108,
			"width": 244
		}
	},
	"inputs": [ {
		"command": "BETS_POSITION",
		"name": "retreatPosition"
	} ],
	"outputs": [],
	"properties": {
		"0MCj5gFP1qFK4NTiceZf3aVzNlgrJ1rK": {
			"height": 151,
			"title": "reference",
			"width": 318,
			"x": 5839,
			"y": 655
		},
		"1I4AcBWHng8fdusQlI5OywNI7SZlfRJC": {
			"height": 94,
			"title": "store",
			"width": 541,
			"x": 4519,
			"y": 591
		},
		"2iGJhQ5ndQkJw9Mfn2vwpaAErLBIDXHV": {
			"height": 60,
			"title": "sequence",
			"width": 143,
			"x": 5826,
			"y": 1151
		},
		"2jDGO5cMyt1ZfwwARcAhQcuqOWNGp64Q": {
			"height": 92,
			"title": "store",
			"width": 131,
			"x": 4218,
			"y": 1738
		},
		"3XrcwCYSSDgGNYHKlv2bxSTizqSC53mw": {
			"height": 92,
			"title": "store",
			"width": 226,
			"x": 3776,
			"y": -127
		},
		"3mam9sOt5rkxEIZ5HH0ncRewjD11xczG": {
			"height": 108,
			"title": "luaCondition",
			"width": 200,
			"x": 3224,
			"y": 1573
		},
		"3nqAslaEzI7m891jbqnghVjBEm3Qjuyj": {
			"height": 90,
			"title": "luaCondition",
			"width": 194,
			"x": 796,
			"y": -493
		},
		"4D8aNrbuJ0gaWbbgwIeNZBduteb2LMj2": {
			"height": 97,
			"title": "store",
			"width": 543,
			"x": 1813,
			"y": -798
		},
		"4SlN8RlFwsYqD6t90iJy5I53Q7I8ZiXj": {
			"height": 72,
			"title": "waitUntil",
			"width": 153,
			"x": 3245,
			"y": 1291
		},
		"5BoLyuhfBqvqnlUzuloJ4d9hm8WkyLKL": {
			"height": 60,
			"title": "repeat",
			"width": 131,
			"x": 3968,
			"y": 1338
		},
		"5o3Ph1P4l4qNLVD60tEvZbRW5L6IzxpK": {
			"height": 94,
			"title": "store",
			"width": 638,
			"x": 4045,
			"y": 226
		},
		"6GMQCrBDrpp09sjWdcxZTKO7gsSpLufM": {
			"height": 72,
			"title": "waitUntil",
			"width": 153,
			"x": 4032,
			"y": 764
		},
		"7KolQULdZ7jCSAvnJNE40xI4kixww1v6": {
			"height": 132,
			"title": "formation.moveCustomGroup",
			"width": 566,
			"x": 4751,
			"y": 1068
		},
		"7Q9EG3xToO9SpjDsyCXXs4ubAFYDFweq": {
			"height": 60,
			"title": "repeat",
			"width": 131,
			"x": 4338,
			"y": 691
		},
		"8adZg6UZcHV5HqvnlhmBD7SNMZ9VeLgC": {
			"height": 90,
			"title": "luaCondition",
			"width": 538,
			"x": 3176,
			"y": -560
		},
		"8maqvfX3y214AyWTswdsCw3YkhVsXaTH": {
			"height": 60,
			"title": "repeat",
			"width": 131,
			"x": 3101,
			"y": 525
		},
		"8xn1jndyKA5ryIfNltgmgX4hbWvV1e5w": {
			"height": 94,
			"title": "store",
			"width": 541,
			"x": 3768,
			"y": 312
		},
		"AUwUKx2oOijhw2pgalz5kFmzi6e7slQB": {
			"height": 60,
			"title": "repeat",
			"width": 131,
			"x": 4330,
			"y": 603
		},
		"Als7tUNWu0injl8CAUYaHoWAKCqCcz8K": {
			"height": 256,
			"title": "reference",
			"width": 299,
			"x": 4217,
			"y": 1416
		},
		"CI9q9SM7AhKWm1ZKqdSVCVTyEqtQFABH": {
			"height": 62,
			"title": "sequence",
			"width": 160,
			"x": 5615,
			"y": 902
		},
		"CRQehF0A2pWCD5vxfoS5IPqupHONR3v9": {
			"height": 281,
			"title": "reference",
			"width": 294,
			"x": 4510,
			"y": 2153
		},
		"CVQwTghrTtayo4lI9hKKeDiSydJmt54b": {
			"height": 79,
			"title": "waitUntil",
			"width": 271,
			"x": 5832,
			"y": 1053
		},
		"CiH1bxSynTfyBRoGb5sUD9h8m8FIL1ni": {
			"height": 79,
			"title": "waitUntil",
			"width": 272,
			"x": 5868,
			"y": 1469
		},
		"DgR00r0KNxS1ZYoh0Aq3zP9NEe4dbqH6": {
			"height": 94,
			"title": "store",
			"width": 420,
			"x": 1807,
			"y": -976
		},
		"EzdKgmGOUlRppbMGSksppSBGmbHWd2Ye": {
			"height": 72,
			"title": "waitUntil",
			"width": 153,
			"x": 3236,
			"y": 1684
		},
		"GOUNnkuXfgZJnmGmExCDWXxgarJBUc0p": {
			"height": 70,
			"title": "roleSplit",
			"width": 207,
			"x": 1833,
			"y": -176
		},
		"GnwrfWtCQYeZ9yxMLHTHb7qEzBYrW8MV": {
			"height": 95,
			"title": "luaCondition",
			"width": 595,
			"x": 3329,
			"y": 674
		},
		"GywarTnasDbi8eewyOpTcKFvWeEHPxHf": {
			"height": 94,
			"title": "store",
			"width": 541,
			"x": 3594,
			"y": 409
		},
		"Hy5oAlL9vUDbeRzp6ujjg743SDyXuxxy": {
			"height": 92,
			"title": "store",
			"width": 173,
			"x": 4112,
			"y": -727
		},
		"IMyboPTDIoJTIsD99SUmnE3br69vFLve": {
			"height": 92,
			"title": "store",
			"width": 173,
			"x": 4119,
			"y": -391
		},
		"Ih1XzqwkPr8sKmKgb28TTcsgitOGtl2h": {
			"height": 94,
			"title": "store",
			"width": 341,
			"x": 5873,
			"y": 1550
		},
		"JoMNOebvSqqcHLo3IyKLdgKhP42mqnUe": {
			"height": 70,
			"title": "roleSplit",
			"width": 207,
			"x": 3725,
			"y": 900
		},
		"K4OIdQKv0jW46MYBQTopMaOZYcBZTYU9": {
			"height": 60,
			"title": "sequence",
			"width": 143,
			"x": 3910,
			"y": -756
		},
		"K55l9vmCUHgzIlbh7BuBeThzkxEeLF2l": {
			"height": 90,
			"title": "luaCondition",
			"width": 349,
			"x": 3244,
			"y": 1186
		},
		"Lbh867e6chTbnsaapz3kSKR2n00wuawi": {
			"height": 70,
			"title": "parallel",
			"width": 207,
			"x": 2675,
			"y": 746
		},
		"MPFgtf7jq09M2fTXCTsu2qGvvbqp67bO": {
			"height": 72,
			"title": "waitUntil",
			"width": 153,
			"x": 3672,
			"y": 1269
		},
		"MRDsE3gQIk2XyEjd8cMpP0yblE8IBlnp": {
			"height": 94,
			"title": "store",
			"width": 541,
			"x": 4044,
			"y": 142
		},
		"ORpbyObBhjWFvGyNNv9yD0orYCtyJGWF": {
			"height": 92,
			"title": "store",
			"width": 173,
			"x": 4111,
			"y": -477
		},
		"OiHCXDZM20EqpzaFjkKDu0RtpXHwR2uZ": {
			"height": 72,
			"title": "waitUntil",
			"width": 245,
			"x": 4216,
			"y": 1671
		},
		"P4NKtU25agivLk2SvBC79APFrsfznq9V": {
			"height": 94,
			"title": "store",
			"width": 667,
			"x": 4216,
			"y": 1326
		},
		"PRSecN1oudjw1KzAsnnugHwOCKyrNE1w": {
			"height": 90,
			"title": "luaCondition",
			"width": 194,
			"x": 3775,
			"y": 179
		},
		"Qim0U4i3dO5xn2FHOoWUcmjKmTqnmX8w": {
			"height": 94,
			"title": "store",
			"width": 412,
			"x": 3116,
			"y": 304
		},
		"QlV6TIs1lq5So46eryJYKXOL8UREgfXS": {
			"height": 92,
			"title": "store",
			"width": 226,
			"x": 3775,
			"y": 24
		},
		"RD1gck1O2pVzsyIg2mXBNSPtj9bUkGOc": {
			"height": 59,
			"title": "sequence",
			"width": 149,
			"x": 1474,
			"y": 18
		},
		"RSxKbhox0bKIlAXJQdrU3eL3UsZE0bye": {
			"height": 94,
			"title": "store",
			"width": 406,
			"x": 2147,
			"y": 131
		},
		"Slp8PSF0R3BEPCRgaR17NfEa3B75dMwo": {
			"height": 70,
			"title": "parallel",
			"width": 207,
			"x": 3571,
			"y": 1577
		},
		"TYJrSJMaJhayOJK9HZeZcv2PGVIlvlZH": {
			"height": 94,
			"title": "store",
			"width": 406,
			"x": 2147,
			"y": 213
		},
		"UJuh6mNjx19wfAzt0zn8QNTG0F8OLE4X": {
			"height": 99,
			"title": "store",
			"width": 322,
			"x": 2335,
			"y": -678
		},
		"VPWAN1hZiKuMwpUfuaQdD1Q8arMbArAN": {
			"height": 256,
			"title": "reference",
			"width": 273,
			"x": 4236,
			"y": 1943
		},
		"WLOuhWOcO1wfRWS7Mw6owuVPkX1KVono": {
			"height": 60,
			"title": "sequence",
			"width": 143,
			"x": 3482,
			"y": -5
		},
		"XQovmpnJBvD0xSQ6Jw59sgMG94lV9oPX": {
			"height": 90,
			"title": "luaCondition",
			"width": 194,
			"x": 2146,
			"y": -278
		},
		"Xa26Lm5KpParVg4dj8IkzDs5T9Gtv1R0": {
			"height": 90,
			"title": "luaCondition",
			"width": 194,
			"x": 2970,
			"y": 1579
		},
		"Y3Rx6Gr7gwrCz6oZ8AX4g6Jx3pWPmXNf": {
			"height": 94,
			"title": "store",
			"width": 592,
			"x": 3482,
			"y": -919
		},
		"YA2xKGy8EqmSyL7oY89D9jcqJpk9uTdN": {
			"height": 94,
			"title": "store",
			"width": 406,
			"x": 4108,
			"y": -803
		},
		"aPZlbayk21Af9mJHCFG0T9NumVssaExW": {
			"height": 94,
			"title": "store",
			"width": 387,
			"x": 1814,
			"y": -887
		},
		"b7KNUqRfuESxltreR2Ht8OwFIBNmn4LR": {
			"height": 90,
			"title": "luaCondition",
			"width": 194,
			"x": 4011,
			"y": 2220
		},
		"bDnj1MXfXqJiEtQmgIDqS1qeTZIYQZ5B": {
			"height": 60,
			"title": "sequence",
			"width": 143,
			"x": 2404,
			"y": -298
		},
		"bPTakYEc24YIsSsmC1nx33oTKXdLEfpt": {
			"height": 70,
			"title": "roleSplit",
			"width": 207,
			"x": 522,
			"y": -360
		},
		"e62OTDemC1gGd6JpWczhqi0WCzJHmrfF": {
			"height": 90,
			"title": "luaCondition",
			"width": 355,
			"x": 3576,
			"y": 2002
		},
		"ejLnVMfCbOq4ncSLyE4YoodONgIULhYi": {
			"height": 54,
			"title": "success",
			"width": 132,
			"x": 3477,
			"y": -975
		},
		"f5Wo0Z0lGol1uLPBWSK37c8mswFH5cye": {
			"height": 72,
			"title": "waitUntil",
			"width": 153,
			"x": 3309,
			"y": 778
		},
		"fA1Ia9T8S4aoRDplutYxSD8s8oGgrFRT": {
			"height": 72,
			"title": "echo",
			"width": 320,
			"x": 1274,
			"y": -582
		},
		"fBaiXAOhBQQLc4faewAV4ljycjGir9G2": {
			"height": 60,
			"title": "sequence",
			"width": 143,
			"x": 3968,
			"y": 1669
		},
		"fcNe1z4P0hc3zI1DdRHuEFsWgoWolpNh": {
			"height": 94,
			"title": "store",
			"width": 958,
			"x": 3778,
			"y": -207
		},
		"gOeL1HV8joYmAZ0cG7rbDoKrIvLcx2U8": {
			"height": 60,
			"title": "repeat",
			"width": 131,
			"x": 2888,
			"y": 315
		},
		"gQ5nZJuScAtOSZIU3vFnISGmxmCA1R1p": {
			"height": 94,
			"title": "store",
			"width": 436,
			"x": 2404,
			"y": -226
		},
		"gdHC5yv1AqSvzkcQyD5qaqyXEsJg95I8": {
			"height": 60,
			"title": "repeat",
			"width": 131,
			"x": 1253,
			"y": 20
		},
		"geSASr7ivcZLbzvWZeijeb6bAqgAzDwM": {
			"height": 92,
			"title": "store",
			"width": 173,
			"x": 524,
			"y": -106
		},
		"gxNDeKEaG0zs4Q5kiL6UErK0P2tbHokJ": {
			"height": 92,
			"title": "store",
			"width": 131,
			"x": 3673,
			"y": 1185
		},
		"jHNFh5qO7s4ALZEoqClhyAXFV3nA0jNs": {
			"height": 54,
			"title": "success",
			"width": 132,
			"x": 1069,
			"y": -392
		},
		"kPBvqltVVNlBpXEhLb3gJwKB9ytUBaWE": {
			"height": 92,
			"title": "store",
			"width": 173,
			"x": 4111,
			"y": -558
		},
		"ktJSU4t8CaAvMzIdSL3hFFELRW3TBcke": {
			"height": 280,
			"title": "reference",
			"width": 325,
			"x": 4516,
			"y": 2417
		},
		"lPvKRtRcEtCnFVQltKERL8exXRDlUcL6": {
			"height": 132,
			"title": "formation.moveCustomGroup",
			"width": 419,
			"x": 5835,
			"y": 799
		},
		"lXX6HUK2AFKHgFsAMB4Zm8OZNbQ2wvVX": {
			"height": 90,
			"title": "luaCondition",
			"width": 194,
			"x": 4030,
			"y": 675
		},
		"m7alwcZdIc4ogBXjJi0MT9jtZYmZXwVo": {
			"height": 90,
			"title": "luaCondition",
			"width": 231,
			"x": 3283,
			"y": 492
		},
		"nTqebFYWCTCGkLtq5yn6gkoinaKog0UJ": {
			"height": 92,
			"title": "store",
			"width": 173,
			"x": 4110,
			"y": -641
		},
		"oR3h7VntY2V5E55rQhyXr0uzXBSUi41I": {
			"height": 130,
			"title": "reference",
			"width": 281,
			"x": 5835,
			"y": 926
		},
		"oaB33xo0IqUPFvGiYkSstxf6PBpYQBu2": {
			"height": 92,
			"title": "store",
			"width": 226,
			"x": 3774,
			"y": -53
		},
		"p98yGfZT6CkE7u7nstMKNAApd4RBSpDj": {
			"height": 60,
			"title": "sequence",
			"width": 143,
			"x": 277,
			"y": 17
		},
		"pMhLxDfwj0BBfNBvlcUouUNIJYMhhDqe": {
			"height": 72,
			"title": "waitUntil",
			"width": 153,
			"x": 1270,
			"y": -517
		},
		"qESsCRcNZzxjkPiqGZgT7jPvPbsq6MQl": {
			"height": 90,
			"title": "luaCondition",
			"width": 194,
			"x": 2994,
			"y": 1186
		},
		"rJoLnoZ6UbGrbcO0R0VjMrAqNvO4S5de": {
			"height": 54,
			"title": "success",
			"width": 132,
			"x": 3829,
			"y": -315
		},
		"sWMedYMTNbOYMIAei8RtmL6tvPHBC4zY": {
			"height": 90,
			"title": "luaCondition",
			"width": 194,
			"x": 3070,
			"y": 676
		},
		"tn13erqV1urggW8lfOcBQRUP9uhViMtI": {
			"height": 92,
			"title": "store",
			"width": 235,
			"x": 6120,
			"y": 1226
		},
		"uHablhTlOd70nhQQvFKpjEY33RPJtAsj": {
			"height": 94,
			"title": "store",
			"width": 541,
			"x": 3597,
			"y": 500
		},
		"v3RVtBdKnuRYjK34mghySVDzaJKG76Sk": {
			"height": 60,
			"title": "sequence",
			"width": 143,
			"x": 2842,
			"y": -549
		},
		"vsPlooBT9OxP9fjGDOV1Jo9O5Hot73Ld": {
			"height": 92,
			"title": "store",
			"width": 226,
			"x": 3774,
			"y": 96
		},
		"wUETMXkAPms9DlBmWXhuXLFLoktiq2BX": {
			"height": 94,
			"title": "store",
			"width": 638,
			"x": 4516,
			"y": 677
		},
		"x6iKDDU3Gl2NMWHzG9Bg4evHWCgWsQAP": {
			"height": 60,
			"title": "sequence",
			"width": 143,
			"x": 5616,
			"y": 1358
		},
		"xjBrC5jqYet3ZHMeFThnc5RtHE0tgB4W": {
			"height": 60,
			"title": "sequence",
			"width": 143,
			"x": 1057,
			"y": -537
		},
		"xsd3JVtiCqzjBzomtFtj6hamka3PFBZi": {
			"height": 132,
			"title": "formation.moveCustomGroup",
			"width": 419,
			"x": 5863,
			"y": 1334
		},
		"y6VW5oY9V0j52Zp0XbBvIOkNtgZpcvvo": {
			"height": 90,
			"title": "luaCondition",
			"width": 194,
			"x": 5183,
			"y": 892
		},
		"yvKms99lcAy4nJANX5cXpocrtuse6zsN": {
			"height": 88,
			"title": "luaCondition",
			"width": 226,
			"x": 3124,
			"y": -934
		},
		"zQYNkor9gziM4dBQBpIfMUlrZ5jlG7Sx": {
			"height": 94,
			"title": "store",
			"width": 341,
			"x": 6118,
			"y": 1140
		},
		"znjGICgTQbYxt86Jd7zPF5ZKXwO50NGY": {
			"height": 90,
			"title": "luaCondition",
			"width": 194,
			"x": 4439,
			"y": 892
		}
	},
	"roles": [ {
		"categories": [ "nota_jd_convoy.Constructors" ],
		"name": "constructors"
	}, {
		"categories": [ "nota_jd_convoy.Infantry" ],
		"name": "infantry"
	}, {
		"categories": [ "nota_jd_convoy.Cavalry" ],
		"name": "cavalry"
	}, {
		"categories": [ "nota_jd_convoy.AA" ],
		"name": "AA"
	} ],
	"root": {
		"children": [ {
			"children": [ {
				"children": [ {
					"children": [ {
						"children": [],
						"id": "fA1Ia9T8S4aoRDplutYxSD8s8oGgrFRT",
						"nodeType": "luaCommand",
						"parameters": [ {
							"name": "msg",
							"value": "\"You don't have any constructor unit !\""
						}, {
							"name": "scriptName",
							"value": "echo"
						} ],
						"scriptName": "echo"
					}, {
						"children": [],
						"id": "pMhLxDfwj0BBfNBvlcUouUNIJYMhhDqe",
						"nodeType": "luaCommand",
						"parameters": [ {
							"name": "condition",
							"value": "false"
						}, {
							"name": "scriptName",
							"value": "waitUntil"
						} ],
						"scriptName": "waitUntil"
					} ],
					"id": "xjBrC5jqYet3ZHMeFThnc5RtHE0tgB4W",
					"nodeType": "sequence",
					"parameters": []
				}, {
					"children": [],
					"id": "jHNFh5qO7s4ALZEoqClhyAXFV3nA0jNs",
					"nodeType": "success",
					"parameters": []
				} ],
				"id": "3nqAslaEzI7m891jbqnghVjBEm3Qjuyj",
				"nodeType": "luaCondition",
				"parameters": [ {
					"name": "expression",
					"value": "#units == 0"
				}, {
					"name": "repeat",
					"value": "false"
				} ]
			} ],
			"id": "bPTakYEc24YIsSsmC1nx33oTKXdLEfpt",
			"nodeType": "roleSplit",
			"parameters": [ {
				"name": "mode",
				"value": "any-success"
			} ]
		}, {
			"children": [],
			"id": "geSASr7ivcZLbzvWZeijeb6bAqgAzDwM",
			"nodeType": "luaCommand",
			"parameters": [ {
				"name": "var",
				"value": "restartConvoy"
			}, {
				"name": "value",
				"value": "true"
			}, {
				"name": "scriptName",
				"value": "store"
			} ],
			"scriptName": "store"
		}, {
			"children": [ {
				"children": [ {
					"children": [],
					"id": "DgR00r0KNxS1ZYoh0Aq3zP9NEe4dbqH6",
					"nodeType": "luaCommand",
					"parameters": [ {
						"name": "var",
						"value": "closestMetalSpot"
					}, {
						"name": "value",
						"value": "nota_jd_convoy.closestMetal(retreatPosition)"
					}, {
						"name": "scriptName",
						"value": "store"
					} ],
					"scriptName": "store"
				}, {
					"children": [],
					"id": "aPZlbayk21Af9mJHCFG0T9NumVssaExW",
					"nodeType": "luaCommand",
					"parameters": [ {
						"name": "var",
						"value": "squadFormation"
					}, {
						"name": "value",
						"value": "nota_jd_convoy.squadFormationCross()"
					}, {
						"name": "scriptName",
						"value": "store"
					} ],
					"scriptName": "store"
				}, {
					"children": [],
					"id": "4D8aNrbuJ0gaWbbgwIeNZBduteb2LMj2",
					"nodeType": "luaCommand",
					"parameters": [ {
						"name": "var",
						"value": "ConvoyReady"
					}, {
						"name": "value",
						"value": "nota_jd_convoy.ConvoyInPosition(false, false, false, false, false, false)"
					}, {
						"name": "scriptName",
						"value": "store"
					} ],
					"scriptName": "store"
				}, {
					"children": [ {
						"children": [],
						"id": "UJuh6mNjx19wfAzt0zn8QNTG0F8OLE4X",
						"nodeType": "luaCommand",
						"parameters": [ {
							"name": "var",
							"value": "constructorGroup"
						}, {
							"name": "value",
							"value": "nota_jd_convoy.Form_Group(units)"
						}, {
							"name": "scriptName",
							"value": "store"
						} ],
						"scriptName": "store"
					}, {
						"children": [ {
							"children": [ {
								"children": [ {
									"children": [ {
										"children": [],
										"id": "ejLnVMfCbOq4ncSLyE4YoodONgIULhYi",
										"nodeType": "success",
										"parameters": []
									}, {
										"children": [],
										"id": "Y3Rx6Gr7gwrCz6oZ8AX4g6Jx3pWPmXNf",
										"nodeType": "luaCommand",
										"parameters": [ {
											"name": "var",
											"value": "needToReorganize"
										}, {
											"name": "value",
											"value": "nota_jd_convoy.isOneSideWeak(upGroup, bottomGroup, rightGroup, leftGroup)"
										}, {
											"name": "scriptName",
											"value": "store"
										} ],
										"scriptName": "store"
									} ],
									"id": "yvKms99lcAy4nJANX5cXpocrtuse6zsN",
									"nodeType": "luaCondition",
									"parameters": [ {
										"name": "expression",
										"value": "(upGroup == nil)"
									}, {
										"name": "repeat",
										"value": "false"
									} ]
								}, {
									"children": [ {
										"children": [ {
											"children": [],
											"id": "YA2xKGy8EqmSyL7oY89D9jcqJpk9uTdN",
											"nodeType": "luaCommand",
											"parameters": [ {
												"name": "var",
												"value": "groupArray"
											}, {
												"name": "value",
												"value": "nota_jd_convoy.Form_InfantryGroup(units)"
											}, {
												"name": "scriptName",
												"value": "store"
											} ],
											"scriptName": "store"
										}, {
											"children": [],
											"id": "Hy5oAlL9vUDbeRzp6ujjg743SDyXuxxy",
											"nodeType": "luaCommand",
											"parameters": [ {
												"name": "var",
												"value": "upGroup"
											}, {
												"name": "value",
												"value": "groupArray[1]"
											}, {
												"name": "scriptName",
												"value": "store"
											} ],
											"scriptName": "store"
										}, {
											"children": [],
											"id": "nTqebFYWCTCGkLtq5yn6gkoinaKog0UJ",
											"nodeType": "luaCommand",
											"parameters": [ {
												"name": "var",
												"value": "bottomGroup"
											}, {
												"name": "value",
												"value": "groupArray[2]"
											}, {
												"name": "scriptName",
												"value": "store"
											} ],
											"scriptName": "store"
										}, {
											"children": [],
											"id": "kPBvqltVVNlBpXEhLb3gJwKB9ytUBaWE",
											"nodeType": "luaCommand",
											"parameters": [ {
												"name": "var",
												"value": "rightGroup"
											}, {
												"name": "value",
												"value": "groupArray[3]"
											}, {
												"name": "scriptName",
												"value": "store"
											} ],
											"scriptName": "store"
										}, {
											"children": [],
											"id": "ORpbyObBhjWFvGyNNv9yD0orYCtyJGWF",
											"nodeType": "luaCommand",
											"parameters": [ {
												"name": "var",
												"value": "leftGroup"
											}, {
												"name": "value",
												"value": "groupArray[4]"
											}, {
												"name": "scriptName",
												"value": "store"
											} ],
											"scriptName": "store"
										}, {
											"children": [],
											"id": "IMyboPTDIoJTIsD99SUmnE3br69vFLve",
											"nodeType": "luaCommand",
											"parameters": [ {
												"name": "var",
												"value": "restartConvoy"
											}, {
												"name": "value",
												"value": "false"
											}, {
												"name": "scriptName",
												"value": "store"
											} ],
											"scriptName": "store"
										} ],
										"id": "K4OIdQKv0jW46MYBQTopMaOZYcBZTYU9",
										"nodeType": "sequence",
										"parameters": []
									}, {
										"children": [],
										"id": "rJoLnoZ6UbGrbcO0R0VjMrAqNvO4S5de",
										"nodeType": "success",
										"parameters": []
									} ],
									"id": "8adZg6UZcHV5HqvnlhmBD7SNMZ9VeLgC",
									"nodeType": "luaCondition",
									"parameters": [ {
										"name": "expression",
										"value": "(needToReorganize and (groupDanger[1] == 0)) or (restartConvoy)"
									}, {
										"name": "repeat",
										"value": "false"
									} ]
								} ],
								"id": "v3RVtBdKnuRYjK34mghySVDzaJKG76Sk",
								"nodeType": "sequence",
								"parameters": []
							}, {
								"children": [ {
									"children": [],
									"id": "fcNe1z4P0hc3zI1DdRHuEFsWgoWolpNh",
									"nodeType": "luaCommand",
									"parameters": [ {
										"name": "var",
										"value": "orderedGroupArray"
									}, {
										"name": "value",
										"value": "nota_jd_convoy.Give_NearestFormation_Heading(upGroup, bottomGroup, rightGroup, leftGroup, closestMetalSpot)"
									}, {
										"name": "scriptName",
										"value": "store"
									} ],
									"scriptName": "store"
								}, {
									"children": [],
									"id": "3XrcwCYSSDgGNYHKlv2bxSTizqSC53mw",
									"nodeType": "luaCommand",
									"parameters": [ {
										"name": "var",
										"value": "upGroup"
									}, {
										"name": "value",
										"value": "orderedGroupArray[1]"
									}, {
										"name": "scriptName",
										"value": "store"
									} ],
									"scriptName": "store"
								}, {
									"children": [],
									"id": "oaB33xo0IqUPFvGiYkSstxf6PBpYQBu2",
									"nodeType": "luaCommand",
									"parameters": [ {
										"name": "var",
										"value": "bottomGroup"
									}, {
										"name": "value",
										"value": "orderedGroupArray[2]"
									}, {
										"name": "scriptName",
										"value": "store"
									} ],
									"scriptName": "store"
								}, {
									"children": [],
									"id": "QlV6TIs1lq5So46eryJYKXOL8UREgfXS",
									"nodeType": "luaCommand",
									"parameters": [ {
										"name": "var",
										"value": "rightGroup"
									}, {
										"name": "value",
										"value": "orderedGroupArray[3]"
									}, {
										"name": "scriptName",
										"value": "store"
									} ],
									"scriptName": "store"
								}, {
									"children": [],
									"id": "vsPlooBT9OxP9fjGDOV1Jo9O5Hot73Ld",
									"nodeType": "luaCommand",
									"parameters": [ {
										"name": "var",
										"value": "leftGroup"
									}, {
										"name": "value",
										"value": "orderedGroupArray[4]"
									}, {
										"name": "scriptName",
										"value": "store"
									} ],
									"scriptName": "store"
								}, {
									"children": [ {
										"children": [],
										"id": "MRDsE3gQIk2XyEjd8cMpP0yblE8IBlnp",
										"nodeType": "luaCommand",
										"parameters": [ {
											"name": "var",
											"value": "groupPosition"
										}, {
											"name": "value",
											"value": "nota_jd_convoy.leadTeamPosition(constructorGroup, closestMetalSpot)"
										}, {
											"name": "scriptName",
											"value": "store"
										} ],
										"scriptName": "store"
									}, {
										"children": [],
										"id": "5o3Ph1P4l4qNLVD60tEvZbRW5L6IzxpK",
										"nodeType": "luaCommand",
										"parameters": [ {
											"name": "var",
											"value": "groupPosition"
										}, {
											"name": "value",
											"value": "nota_jd_convoy.leadTeamPosition_start(closestMetalSpot, retreatPosition)"
										}, {
											"name": "scriptName",
											"value": "store"
										} ],
										"scriptName": "store"
									} ],
									"id": "PRSecN1oudjw1KzAsnnugHwOCKyrNE1w",
									"nodeType": "luaCondition",
									"parameters": [ {
										"name": "expression",
										"value": "convoyStarted"
									}, {
										"name": "repeat",
										"value": "false"
									} ]
								}, {
									"children": [],
									"id": "8xn1jndyKA5ryIfNltgmgX4hbWvV1e5w",
									"nodeType": "luaCommand",
									"parameters": [ {
										"name": "var",
										"value": "groupDanger"
									}, {
										"name": "value",
										"value": "nota_jd_convoy.danger_convoy()"
									}, {
										"name": "scriptName",
										"value": "store"
									} ],
									"scriptName": "store"
								} ],
								"id": "WLOuhWOcO1wfRWS7Mw6owuVPkX1KVono",
								"nodeType": "sequence",
								"parameters": []
							} ],
							"id": "bDnj1MXfXqJiEtQmgIDqS1qeTZIYQZ5B",
							"nodeType": "sequence",
							"parameters": []
						}, {
							"children": [],
							"id": "gQ5nZJuScAtOSZIU3vFnISGmxmCA1R1p",
							"nodeType": "luaCommand",
							"parameters": [ {
								"name": "var",
								"value": "protection"
							}, {
								"name": "value",
								"value": "Sensors.ConvoyInPosition(true,true,true,true,true, true)"
							}, {
								"name": "scriptName",
								"value": "store"
							} ],
							"scriptName": "store"
						} ],
						"id": "XQovmpnJBvD0xSQ6Jw59sgMG94lV9oPX",
						"nodeType": "luaCondition",
						"parameters": [ {
							"name": "expression",
							"value": "#units > 0"
						}, {
							"name": "repeat",
							"value": "true"
						} ]
					}, {
						"children": [],
						"id": "RSxKbhox0bKIlAXJQdrU3eL3UsZE0bye",
						"nodeType": "luaCommand",
						"parameters": [ {
							"name": "var",
							"value": "cavalryGroup"
						}, {
							"name": "value",
							"value": "nota_jd_convoy.Form_Group(units)"
						}, {
							"name": "scriptName",
							"value": "store"
						} ],
						"scriptName": "store"
					}, {
						"children": [],
						"id": "TYJrSJMaJhayOJK9HZeZcv2PGVIlvlZH",
						"nodeType": "luaCommand",
						"parameters": [ {
							"name": "var",
							"value": "AAGroup"
						}, {
							"name": "value",
							"value": "nota_jd_convoy.Form_Group(units)"
						}, {
							"name": "scriptName",
							"value": "store"
						} ],
						"scriptName": "store"
					} ],
					"id": "GOUNnkuXfgZJnmGmExCDWXxgarJBUc0p",
					"nodeType": "roleSplit",
					"parameters": [ {
						"name": "mode",
						"value": "all-success"
					} ]
				}, {
					"children": [ {
						"children": [ {
							"children": [ {
								"children": [],
								"id": "GywarTnasDbi8eewyOpTcKFvWeEHPxHf",
								"nodeType": "luaCommand",
								"parameters": [ {
									"name": "var",
									"value": "groupDanger"
								}, {
									"name": "value",
									"value": "nota_jd_convoy.danger_convoy()"
								}, {
									"name": "scriptName",
									"value": "store"
								} ],
								"scriptName": "store"
							}, {
								"children": [],
								"id": "uHablhTlOd70nhQQvFKpjEY33RPJtAsj",
								"nodeType": "luaCommand",
								"parameters": [ {
									"name": "var",
									"value": "groupPosition"
								}, {
									"name": "value",
									"value": "nota_jd_convoy.leadTeamPosition(constructorGroup, closestMetalSpot)"
								}, {
									"name": "scriptName",
									"value": "store"
								} ],
								"scriptName": "store"
							} ],
							"id": "m7alwcZdIc4ogBXjJi0MT9jtZYmZXwVo",
							"nodeType": "luaCondition",
							"parameters": [ {
								"name": "expression",
								"value": "bb.convoyPointmanPos ~= nil"
							}, {
								"name": "repeat",
								"value": "true"
							} ]
						} ],
						"id": "8maqvfX3y214AyWTswdsCw3YkhVsXaTH",
						"nodeType": "repeat",
						"parameters": []
					}, {
						"children": [ {
							"children": [ {
								"children": [ {
									"children": [ {
										"children": [],
										"id": "1I4AcBWHng8fdusQlI5OywNI7SZlfRJC",
										"nodeType": "luaCommand",
										"parameters": [ {
											"name": "var",
											"value": "groupPosition"
										}, {
											"name": "value",
											"value": "nota_jd_convoy.leadTeamPosition(constructorGroup, closestMetalSpot)"
										}, {
											"name": "scriptName",
											"value": "store"
										} ],
										"scriptName": "store"
									} ],
									"id": "AUwUKx2oOijhw2pgalz5kFmzi6e7slQB",
									"nodeType": "repeat",
									"parameters": []
								}, {
									"children": [ {
										"children": [],
										"id": "wUETMXkAPms9DlBmWXhuXLFLoktiq2BX",
										"nodeType": "luaCommand",
										"parameters": [ {
											"name": "var",
											"value": "groupPosition"
										}, {
											"name": "value",
											"value": "nota_jd_convoy.leadTeamPosition_start(closestMetalSpot, retreatPosition)"
										}, {
											"name": "scriptName",
											"value": "store"
										} ],
										"scriptName": "store"
									} ],
									"id": "7Q9EG3xToO9SpjDsyCXXs4ubAFYDFweq",
									"nodeType": "repeat",
									"parameters": []
								} ],
								"id": "lXX6HUK2AFKHgFsAMB4Zm8OZNbQ2wvVX",
								"nodeType": "luaCondition",
								"parameters": [ {
									"name": "expression",
									"value": "convoyStarted"
								}, {
									"name": "repeat",
									"value": "false"
								} ]
							}, {
								"children": [],
								"id": "6GMQCrBDrpp09sjWdcxZTKO7gsSpLufM",
								"nodeType": "luaCommand",
								"parameters": [ {
									"name": "condition",
									"value": "false"
								}, {
									"name": "scriptName",
									"value": "waitUntil"
								} ],
								"scriptName": "waitUntil"
							} ],
							"id": "GnwrfWtCQYeZ9yxMLHTHb7qEzBYrW8MV",
							"nodeType": "luaCondition",
							"parameters": [ {
								"name": "expression",
								"value": "(bb.convoyPointmanPos:Distance(closestMetalSpot) > 250) and (groupDanger[1] < 4)"
							}, {
								"name": "repeat",
								"value": "true"
							} ]
						}, {
							"children": [],
							"id": "f5Wo0Z0lGol1uLPBWSK37c8mswFH5cye",
							"nodeType": "luaCommand",
							"parameters": [ {
								"name": "condition",
								"value": "false"
							}, {
								"name": "scriptName",
								"value": "waitUntil"
							} ],
							"scriptName": "waitUntil"
						} ],
						"id": "sWMedYMTNbOYMIAei8RtmL6tvPHBC4zY",
						"nodeType": "luaCondition",
						"parameters": [ {
							"name": "expression",
							"value": "groupDanger ~= nil"
						}, {
							"name": "repeat",
							"value": "true"
						} ]
					}, {
						"children": [ {
							"children": [ {
								"children": [ {
									"children": [ {
										"children": [],
										"id": "0MCj5gFP1qFK4NTiceZf3aVzNlgrJ1rK",
										"nodeType": "reference",
										"parameters": [ {
											"name": "behaviourName",
											"value": "nota_jd_convoy.collect_deadUnits"
										} ],
										"referenceInputs": [ {
											"name": "closestMetalSpot",
											"value": "closestMetalSpot"
										} ],
										"referenceOutputs": []
									}, {
										"children": [],
										"id": "lPvKRtRcEtCnFVQltKERL8exXRDlUcL6",
										"nodeType": "luaCommand",
										"parameters": [ {
											"name": "groupDefintion",
											"value": "constructorGroup"
										}, {
											"name": "position",
											"value": "closestMetalSpot"
										}, {
											"name": "formation",
											"value": "(nota_jd_convoy.teamFormationHex()).positions"
										}, {
											"name": "fight",
											"value": "false"
										}, {
											"name": "scriptName",
											"value": "formation.moveCustomGroup"
										} ],
										"scriptName": "formation.moveCustomGroup"
									}, {
										"children": [],
										"id": "oR3h7VntY2V5E55rQhyXr0uzXBSUi41I",
										"nodeType": "reference",
										"parameters": [ {
											"name": "behaviourName",
											"value": "nota_jd_convoy.build_extractor"
										} ],
										"referenceInputs": [ {
											"name": "closestMetalSpot",
											"value": "closestMetalSpot"
										} ],
										"referenceOutputs": []
									}, {
										"children": [],
										"id": "CVQwTghrTtayo4lI9hKKeDiSydJmt54b",
										"nodeType": "luaCommand",
										"parameters": [ {
											"name": "condition",
											"value": "bb.protectionInPosition"
										}, {
											"name": "scriptName",
											"value": "waitUntil"
										} ],
										"scriptName": "waitUntil"
									}, {
										"children": [ {
											"children": [],
											"id": "zQYNkor9gziM4dBQBpIfMUlrZ5jlG7Sx",
											"nodeType": "luaCommand",
											"parameters": [ {
												"name": "var",
												"value": "convoyStarted"
											}, {
												"name": "value",
												"value": "false"
											}, {
												"name": "scriptName",
												"value": "store"
											} ],
											"scriptName": "store"
										}, {
											"children": [],
											"id": "tn13erqV1urggW8lfOcBQRUP9uhViMtI",
											"nodeType": "luaCommand",
											"parameters": [ {
												"name": "var",
												"value": "retreatPosition"
											}, {
												"name": "value",
												"value": "bb.convoyPointmanPos"
											}, {
												"name": "scriptName",
												"value": "store"
											} ],
											"scriptName": "store"
										} ],
										"id": "2iGJhQ5ndQkJw9Mfn2vwpaAErLBIDXHV",
										"nodeType": "sequence",
										"parameters": []
									} ],
									"id": "CI9q9SM7AhKWm1ZKqdSVCVTyEqtQFABH",
									"nodeType": "sequence",
									"parameters": []
								}, {
									"children": [ {
										"children": [],
										"id": "xsd3JVtiCqzjBzomtFtj6hamka3PFBZi",
										"nodeType": "luaCommand",
										"parameters": [ {
											"name": "groupDefintion",
											"value": "constructorGroup"
										}, {
											"name": "position",
											"value": "retreatPosition"
										}, {
											"name": "formation",
											"value": "(nota_jd_convoy.teamFormationHex()).positions"
										}, {
											"name": "fight",
											"value": "false"
										}, {
											"name": "scriptName",
											"value": "formation.moveCustomGroup"
										} ],
										"scriptName": "formation.moveCustomGroup"
									}, {
										"children": [],
										"id": "CiH1bxSynTfyBRoGb5sUD9h8m8FIL1ni",
										"nodeType": "luaCommand",
										"parameters": [ {
											"name": "condition",
											"value": "bb.protectionInPosition"
										}, {
											"name": "scriptName",
											"value": "waitUntil"
										} ],
										"scriptName": "waitUntil"
									}, {
										"children": [],
										"id": "Ih1XzqwkPr8sKmKgb28TTcsgitOGtl2h",
										"nodeType": "luaCommand",
										"parameters": [ {
											"name": "var",
											"value": "convoyStarted"
										}, {
											"name": "value",
											"value": "true"
										}, {
											"name": "scriptName",
											"value": "store"
										} ],
										"scriptName": "store"
									} ],
									"id": "x6iKDDU3Gl2NMWHzG9Bg4evHWCgWsQAP",
									"nodeType": "sequence",
									"parameters": []
								} ],
								"id": "y6VW5oY9V0j52Zp0XbBvIOkNtgZpcvvo",
								"nodeType": "luaCondition",
								"parameters": [ {
									"name": "expression",
									"value": "convoyStarted"
								}, {
									"name": "repeat",
									"value": "false"
								} ]
							}, {
								"children": [],
								"id": "7KolQULdZ7jCSAvnJNE40xI4kixww1v6",
								"nodeType": "luaCommand",
								"parameters": [ {
									"name": "groupDefintion",
									"value": "constructorGroup"
								}, {
									"name": "position",
									"value": "bb.convoyPointmanPos + Vec3(50,0,0):Rotate2D(bb.convoyHeading)"
								}, {
									"name": "formation",
									"value": "(nota_jd_convoy.teamFormationHex()).positions"
								}, {
									"name": "fight",
									"value": "false"
								}, {
									"name": "scriptName",
									"value": "formation.moveCustomGroup"
								} ],
								"scriptName": "formation.moveCustomGroup"
							} ],
							"id": "znjGICgTQbYxt86Jd7zPF5ZKXwO50NGY",
							"nodeType": "luaCondition",
							"parameters": [ {
								"name": "expression",
								"value": "not inRetreat"
							}, {
								"name": "repeat",
								"value": "true"
							} ]
						} ],
						"id": "JoMNOebvSqqcHLo3IyKLdgKhP42mqnUe",
						"nodeType": "roleSplit",
						"parameters": [ {
							"name": "mode",
							"value": "any-success"
						} ]
					}, {
						"children": [ {
							"children": [ {
								"children": [],
								"id": "gxNDeKEaG0zs4Q5kiL6UErK0P2tbHokJ",
								"nodeType": "luaCommand",
								"parameters": [ {
									"name": "var",
									"value": "inRetreat"
								}, {
									"name": "value",
									"value": "true"
								}, {
									"name": "scriptName",
									"value": "store"
								} ],
								"scriptName": "store"
							}, {
								"children": [],
								"id": "MPFgtf7jq09M2fTXCTsu2qGvvbqp67bO",
								"nodeType": "luaCommand",
								"parameters": [ {
									"name": "condition",
									"value": "false"
								}, {
									"name": "scriptName",
									"value": "waitUntil"
								} ],
								"scriptName": "waitUntil"
							} ],
							"id": "K55l9vmCUHgzIlbh7BuBeThzkxEeLF2l",
							"nodeType": "luaCondition",
							"parameters": [ {
								"name": "expression",
								"value": "groupDanger[1] == 4"
							}, {
								"name": "repeat",
								"value": "true"
							} ]
						}, {
							"children": [],
							"id": "4SlN8RlFwsYqD6t90iJy5I53Q7I8ZiXj",
							"nodeType": "luaCommand",
							"parameters": [ {
								"name": "condition",
								"value": "false"
							}, {
								"name": "scriptName",
								"value": "waitUntil"
							} ],
							"scriptName": "waitUntil"
						} ],
						"id": "qESsCRcNZzxjkPiqGZgT7jPvPbsq6MQl",
						"nodeType": "luaCondition",
						"parameters": [ {
							"name": "expression",
							"value": "groupDanger ~= nil"
						}, {
							"name": "repeat",
							"value": "true"
						} ]
					}, {
						"children": [ {
							"children": [ {
								"children": [ {
									"children": [ {
										"children": [],
										"id": "P4NKtU25agivLk2SvBC79APFrsfznq9V",
										"nodeType": "luaCommand",
										"parameters": [ {
											"name": "var",
											"value": "groupPosition"
										}, {
											"name": "value",
											"value": "nota_jd_convoy.leadTeamPosition_retreat(constructorGroup, retreatPosition, groupDanger)"
										}, {
											"name": "scriptName",
											"value": "store"
										} ],
										"scriptName": "store"
									} ],
									"id": "5BoLyuhfBqvqnlUzuloJ4d9hm8WkyLKL",
									"nodeType": "repeat",
									"parameters": []
								}, {
									"children": [],
									"id": "Als7tUNWu0injl8CAUYaHoWAKCqCcz8K",
									"nodeType": "reference",
									"parameters": [ {
										"name": "behaviourName",
										"value": "nota_jd_convoy.No threat"
									} ],
									"referenceInputs": [ {
										"name": "squadFormation",
										"value": "squadFormation"
									}, {
										"name": "upGroup",
										"value": "upGroup"
									}, {
										"name": "bottomGroup",
										"value": "bottomGroup"
									}, {
										"name": "rightGroup",
										"value": "rightGroup"
									}, {
										"name": "leftGroup",
										"value": "leftGroup"
									}, {
										"name": "cavalryGroup",
										"value": "cavalryGroup"
									}, {
										"name": "AAGroup",
										"value": "AAGroup"
									} ],
									"referenceOutputs": []
								}, {
									"children": [ {
										"children": [],
										"id": "OiHCXDZM20EqpzaFjkKDu0RtpXHwR2uZ",
										"nodeType": "luaCommand",
										"parameters": [ {
											"name": "condition",
											"value": "groupDanger[1] == 0"
										}, {
											"name": "scriptName",
											"value": "waitUntil"
										} ],
										"scriptName": "waitUntil"
									}, {
										"children": [],
										"id": "2jDGO5cMyt1ZfwwARcAhQcuqOWNGp64Q",
										"nodeType": "luaCommand",
										"parameters": [ {
											"name": "var",
											"value": "inRetreat"
										}, {
											"name": "value",
											"value": "false"
										}, {
											"name": "scriptName",
											"value": "store"
										} ],
										"scriptName": "store"
									} ],
									"id": "fBaiXAOhBQQLc4faewAV4ljycjGir9G2",
									"nodeType": "sequence",
									"parameters": []
								} ],
								"id": "Slp8PSF0R3BEPCRgaR17NfEa3B75dMwo",
								"nodeType": "parallel",
								"parameters": [ {
									"name": "mode",
									"value": "any-success"
								} ]
							}, {
								"children": [ {
									"children": [],
									"id": "VPWAN1hZiKuMwpUfuaQdD1Q8arMbArAN",
									"nodeType": "reference",
									"parameters": [ {
										"name": "behaviourName",
										"value": "nota_jd_convoy.No threat"
									} ],
									"referenceInputs": [ {
										"name": "squadFormation",
										"value": "squadFormation"
									}, {
										"name": "upGroup",
										"value": "upGroup"
									}, {
										"name": "bottomGroup",
										"value": "bottomGroup"
									}, {
										"name": "rightGroup",
										"value": "rightGroup"
									}, {
										"name": "leftGroup",
										"value": "leftGroup"
									}, {
										"name": "cavalryGroup",
										"value": "cavalryGroup"
									}, {
										"name": "AAGroup",
										"value": "AAGroup"
									} ],
									"referenceOutputs": []
								}, {
									"children": [ {
										"children": [],
										"id": "CRQehF0A2pWCD5vxfoS5IPqupHONR3v9",
										"nodeType": "reference",
										"parameters": [ {
											"name": "behaviourName",
											"value": "nota_jd_convoy.One_Threat"
										} ],
										"referenceInputs": [ {
											"name": "squadFormation",
											"value": "squadFormation"
										}, {
											"name": "upGroup",
											"value": "upGroup"
										}, {
											"name": "bottomGroup",
											"value": "bottomGroup"
										}, {
											"name": "rightGroup",
											"value": "rightGroup"
										}, {
											"name": "leftGroup",
											"value": "leftGroup"
										}, {
											"name": "cavalryGroup",
											"value": "cavalryGroup"
										}, {
											"name": "AAGroup",
											"value": "AAGroup"
										}, {
											"name": "groupDanger",
											"value": "groupDanger"
										} ],
										"referenceOutputs": []
									}, {
										"children": [],
										"id": "ktJSU4t8CaAvMzIdSL3hFFELRW3TBcke",
										"nodeType": "reference",
										"parameters": [ {
											"name": "behaviourName",
											"value": "nota_jd_convoy.Two_Threats"
										} ],
										"referenceInputs": [ {
											"name": "squadFormation",
											"value": "squadFormation"
										}, {
											"name": "upGroup",
											"value": "upGroup"
										}, {
											"name": "bottomGroup",
											"value": "bottomGroup"
										}, {
											"name": "rightGroup",
											"value": "rightGroup"
										}, {
											"name": "leftGroup",
											"value": "leftGroup"
										}, {
											"name": "cavalryGroup",
											"value": "cavalryGroup"
										}, {
											"name": "AAGroup",
											"value": "AAGroup"
										}, {
											"name": "groupDanger",
											"value": "groupDanger"
										} ],
										"referenceOutputs": []
									} ],
									"id": "b7KNUqRfuESxltreR2Ht8OwFIBNmn4LR",
									"nodeType": "luaCondition",
									"parameters": [ {
										"name": "expression",
										"value": "groupDanger[1] == 1"
									}, {
										"name": "repeat",
										"value": "true"
									} ]
								} ],
								"id": "e62OTDemC1gGd6JpWczhqi0WCzJHmrfF",
								"nodeType": "luaCondition",
								"parameters": [ {
									"name": "expression",
									"value": "(groupDanger[1] == nil) or (groupDanger[1] == 0)"
								}, {
									"name": "repeat",
									"value": "true"
								} ]
							} ],
							"id": "3mam9sOt5rkxEIZ5HH0ncRewjD11xczG",
							"nodeType": "luaCondition",
							"parameters": [ {
								"name": "expression",
								"value": "inRetreat"
							}, {
								"name": "repeat",
								"value": "true"
							} ]
						}, {
							"children": [],
							"id": "EzdKgmGOUlRppbMGSksppSBGmbHWd2Ye",
							"nodeType": "luaCommand",
							"parameters": [ {
								"name": "condition",
								"value": "false"
							}, {
								"name": "scriptName",
								"value": "waitUntil"
							} ],
							"scriptName": "waitUntil"
						} ],
						"id": "Xa26Lm5KpParVg4dj8IkzDs5T9Gtv1R0",
						"nodeType": "luaCondition",
						"parameters": [ {
							"name": "expression",
							"value": "groupDanger ~= nil"
						}, {
							"name": "repeat",
							"value": "true"
						} ]
					} ],
					"id": "Lbh867e6chTbnsaapz3kSKR2n00wuawi",
					"nodeType": "parallel",
					"parameters": [ {
						"name": "mode",
						"value": "any-success"
					} ]
				} ],
				"id": "RD1gck1O2pVzsyIg2mXBNSPtj9bUkGOc",
				"nodeType": "sequence",
				"parameters": []
			} ],
			"id": "gdHC5yv1AqSvzkcQyD5qaqyXEsJg95I8",
			"nodeType": "repeat",
			"parameters": []
		} ],
		"id": "p98yGfZT6CkE7u7nstMKNAApd4RBSpDj",
		"nodeType": "sequence",
		"parameters": []
	}
}