{
	"additionalNodes": [],
	"additionalParameters": {
		"root": {
			"height": 253,
			"width": 276
		}
	},
	"inputs": [ {
		"command": "Variable",
		"name": "squadFormation"
	}, {
		"command": "Variable",
		"name": "upGroup"
	}, {
		"command": "Variable",
		"name": "bottomGroup"
	}, {
		"command": "Variable",
		"name": "rightGroup"
	}, {
		"command": "Variable",
		"name": "leftGroup"
	}, {
		"command": "Variable",
		"name": "cavalryGroup"
	}, {
		"command": "Variable",
		"name": "AAGroup"
	}, {
		"command": "Variable",
		"name": "groupDanger"
	} ],
	"outputs": [],
	"properties": {
		"0M23hpj1lospdXq247StaLSpTNVA29JM": {
			"height": 92,
			"title": "store",
			"width": 197,
			"x": 2605,
			"y": 1395
		},
		"1rMVUn5OSiNAd7hOEYNyZTbUFXH1MG1V": {
			"height": 60,
			"title": "repeat",
			"width": 131,
			"x": 2088,
			"y": 807
		},
		"2WP2Ax4krlqEKkJ6OZAY8yxkSICtn89E": {
			"height": 90,
			"title": "luaCondition",
			"width": 214,
			"x": 2534,
			"y": 782
		},
		"4oEZMcG8T0PmU2mQKxAMNHt9WXM3xWma": {
			"height": 60,
			"title": "repeat",
			"width": 131,
			"x": 2386,
			"y": 2206
		},
		"6OEvCgJvLymtKPYtoaCoOk0ttSQEJQIc": {
			"height": 172,
			"title": "front team",
			"width": 383,
			"x": 2967,
			"y": 1955
		},
		"6lVIMEqCQeTM4ndMrjGp8qR8HQAnIto7": {
			"height": 70,
			"title": "parallel",
			"width": 202,
			"x": 724,
			"y": 62
		},
		"95Pxy5a5HwZzbPe7fEbJ00bDcCKMcvUh": {
			"height": 60,
			"title": "sequence",
			"width": 143,
			"x": 351,
			"y": 67
		},
		"9KmHDcjYeCFil0plQx1Qjv2HUrwhx1xq": {
			"height": 54,
			"title": "success",
			"width": 132,
			"x": 1523,
			"y": 189
		},
		"AXDuIR0pluFq75SGw1uRcVxE2ukFjgBW": {
			"height": 172,
			"title": "right team",
			"width": 386,
			"x": 3710,
			"y": 1897
		},
		"AY35NzVoay0WsW3xzuBtlfwDfQk20mm2": {
			"height": 172,
			"title": "front team",
			"width": 383,
			"x": 2959,
			"y": 1464
		},
		"AcUYh1XKtLTYooB0nX07EbyY5vYFWNp1": {
			"height": 60,
			"title": "sequence",
			"width": 143,
			"x": 2277,
			"y": 308
		},
		"BX74bGPG3gM5fNwoGAGWhkfTyYeZmdqX": {
			"height": 172,
			"title": "Cavalry team",
			"width": 428,
			"x": 3896,
			"y": 2520
		},
		"Bye26LObUL8ybGtxAFkei7l0ac9JsWZp": {
			"height": 172,
			"title": "back team",
			"width": 383,
			"x": 3391,
			"y": 1735
		},
		"C2JWAzMp7BDNRqS9LhhrwVkb4qLZQqdx": {
			"height": 90,
			"title": "luaCondition",
			"width": 214,
			"x": 2829,
			"y": 287
		},
		"CDi0M6UBgbV6Y0XmJlC92JoYCL1X2zVL": {
			"height": 90,
			"title": "luaCondition",
			"width": 214,
			"x": 2625,
			"y": 1261
		},
		"DLL6T71OU2gvorSYEPBN0Dx2MPrSyLmp": {
			"height": 172,
			"title": "right team",
			"width": 386,
			"x": 3713,
			"y": 1408
		},
		"DqD75gMHiJyIx604u1YbtSkTbM6HPgmK": {
			"height": 93,
			"title": "store",
			"width": 203,
			"x": 540,
			"y": -367
		},
		"EJNdOXTXynwvZGcgxbOE5Wmy5bS0c1vS": {
			"height": 60,
			"title": "repeat",
			"width": 131,
			"x": 2139,
			"y": 1286
		},
		"FqUn0c17B17fDCu4bfhLmsWg6Ci5ov5K": {
			"height": 172,
			"title": "left team",
			"width": 390,
			"x": 3607,
			"y": 1062
		},
		"GAHaXGMlwAn1JlI1442hfslcrFDBfZnP": {
			"height": 92,
			"title": "store",
			"width": 159,
			"x": 2741,
			"y": 2660
		},
		"GJKTaP9nbwdvM4vNXn4HtjnW0OcOlQWK": {
			"height": 60,
			"title": "sequence",
			"width": 143,
			"x": 1528,
			"y": 304
		},
		"HGSFthtEFTVu8LYjYuh2aAD25Rea9HEd": {
			"height": 60,
			"title": "sequence",
			"width": 143,
			"x": 967,
			"y": 129
		},
		"HSt0aNOTd7tFvR52tjAgRxrtZCrw7XAt": {
			"height": 90,
			"title": "luaCondition",
			"width": 214,
			"x": 2633,
			"y": 1752
		},
		"HULCSRtVfaES3OJWwnRXdMN0JBaqNP69": {
			"height": 172,
			"title": "back team",
			"width": 383,
			"x": 3226,
			"y": 230
		},
		"HZ97OvQukWVjsM1w3FX8v1htewyyAH9R": {
			"height": 90,
			"title": "luaCondition",
			"width": 214,
			"x": 2888,
			"y": 782
		},
		"HdnUdhpK8mh73IgD8i1lU1obl5iMgzaU": {
			"height": 172,
			"title": "front team",
			"width": 383,
			"x": 2868,
			"y": 985
		},
		"Hr0YdhNFBcB6Qb67BuA6oXNGbtVRHjDa": {
			"height": 172,
			"title": "Cavalry team",
			"width": 428,
			"x": 3613,
			"y": 2339
		},
		"J3Ypr2Af7dsF96foKqsOM3lJyt3F5hPQ": {
			"height": 92,
			"title": "store",
			"width": 159,
			"x": 2835,
			"y": 2346
		},
		"KzP7A3TrR77pqJr6ZnN1uh5rR6xiMFmr": {
			"height": 172,
			"title": "right team",
			"width": 386,
			"x": 3604,
			"y": 898
		},
		"LlNMCTuDqPwrVK0VhIDoDvXgihSxFUWY": {
			"height": 90,
			"title": "luaCondition",
			"width": 214,
			"x": 3399,
			"y": 1897
		},
		"OuWjXnR9pGb0c4WNFVM88YmQ7qHe5bkL": {
			"height": 172,
			"title": "left team",
			"width": 390,
			"x": 3542,
			"y": 575
		},
		"RWQj9kQ9ajMTECXAZGYxETKLroKcsT9r": {
			"height": 172,
			"title": "AA team",
			"width": 380,
			"x": 2741,
			"y": 2493
		},
		"RbNx1BM7cWe0FzZzdWI9tIny2utVwI2i": {
			"height": 94,
			"title": "store",
			"width": 952,
			"x": 1245,
			"y": -103
		},
		"S65aiP2BWAKbcIrY2WcmZo3rMazIA97b": {
			"height": 92,
			"title": "store",
			"width": 159,
			"x": 537,
			"y": -125
		},
		"S9sCQuKBe0nQ6kacH55ViuoNctvmXlhC": {
			"height": 90,
			"title": "luaCondition",
			"width": 214,
			"x": 2979,
			"y": 1261
		},
		"SJ24PnBFBFqkuBtNPF9Jw5GcAwc2gEYS": {
			"height": 90,
			"title": "luaCondition",
			"width": 242,
			"x": 3240,
			"y": 2339
		},
		"SNRuXGXHDmTxc7UOjvf6srsNsy71f7mh": {
			"height": 172,
			"title": "left team",
			"width": 390,
			"x": 3711,
			"y": 1569
		},
		"SX8ArmZGgXJ1bcmLQnajyo8UEy1N89zs": {
			"height": 172,
			"title": "Cavalry team",
			"width": 405,
			"x": 3893,
			"y": 2685
		},
		"SbLwt9ldimtXf2leiOXv30jM2aW7uBgL": {
			"height": 60,
			"title": "repeat",
			"width": 131,
			"x": 1018,
			"y": -91
		},
		"TdTBF6Vk2edr5Q0tTvJkxGh6f392dytp": {
			"height": 92,
			"title": "store",
			"width": 159,
			"x": 538,
			"y": -47
		},
		"UFKSygq1NExaWJba8aDZXBkA4TS8jIOY": {
			"height": 172,
			"title": "back team",
			"width": 383,
			"x": 3289,
			"y": 741
		},
		"VFXS3qP0pFQzXUN7VokOdHHxq0K3fJmO": {
			"height": 70,
			"title": "parallel",
			"width": 207,
			"x": 1796,
			"y": 302
		},
		"VcBCz0EaJAlFF7WITztNV4V8JevPvrzx": {
			"height": 60,
			"title": "sequence",
			"width": 143,
			"x": 2539,
			"y": 2527
		},
		"WuHCmFPyKEmGvJq9mRwW7O1lqKFRZ4b2": {
			"height": 70,
			"title": "roleSplit",
			"width": 207,
			"x": 1202,
			"y": 184
		},
		"XHXDODAiCzJcpOyZBQWCK9p0hb34iXgX": {
			"height": 172,
			"title": "front team",
			"width": 383,
			"x": 2809,
			"y": 490
		},
		"broUkw6KthElXlPMhskOBq39POeUBm8b": {
			"height": 60,
			"title": "sequence",
			"width": 143,
			"x": 2591,
			"y": 2207
		},
		"bxucWQdRX82VnyBMBnybCKjiesReoFGy": {
			"height": 60,
			"title": "sequence",
			"width": 143,
			"x": 2334,
			"y": 801
		},
		"cbGWVdHGbrFPN8dB7pNV7UCeSAsyCyq3": {
			"height": 92,
			"title": "store",
			"width": 174,
			"x": 2455,
			"y": 421
		},
		"dG7eBUw2VS1zsdTXf7giepXtYeIjoixb": {
			"height": 95,
			"title": "store",
			"width": 728,
			"x": 1301,
			"y": 23
		},
		"gPIN7pBJV97wg4bBykMvwizkTc6ZOrgr": {
			"height": 60,
			"title": "sequence",
			"width": 143,
			"x": 2147,
			"y": 2529
		},
		"hzo049IaiYFcZr7TPyl4crDb7b5EJNxI": {
			"height": 60,
			"title": "repeat",
			"width": 131,
			"x": 2117,
			"y": 308
		},
		"i94WCD3VYs1202BMnwOM1nQHkydOTHQ4": {
			"height": 60,
			"title": "sequence",
			"width": 143,
			"x": 2126,
			"y": 2205
		},
		"jvaAkffMK3eF9Yc8U2b6RNR5lMfClWyw": {
			"height": 60,
			"title": "sequence",
			"width": 143,
			"x": 2425,
			"y": 1280
		},
		"kM3JCxCR9mtrzTBo1ByRhVZ7fwo5uiOO": {
			"height": 60,
			"title": "repeat",
			"width": 131,
			"x": 533,
			"y": 67
		},
		"kNqEpUmLRl60xmOMjRVC6BJsyfsJv5YP": {
			"height": 60,
			"title": "repeat",
			"width": 131,
			"x": 2338,
			"y": 2528
		},
		"kQhneubp189ZghsuIzcTXddT4KWAUZAP": {
			"height": 60,
			"title": "repeat",
			"width": 131,
			"x": 2226,
			"y": 1763
		},
		"m05I1qhZYqjZe3myKMsQLhbUjbtOZStN": {
			"height": 90,
			"title": "luaCondition",
			"width": 214,
			"x": 3391,
			"y": 1406
		},
		"nv5sCgze34dM0mdzkgqCNcZ00IB0Cq1W": {
			"height": 90,
			"title": "luaCondition",
			"width": 214,
			"x": 2911,
			"y": 2196
		},
		"nzy2qVrtpyDds21mqW00GBLt7bMXYmj4": {
			"height": 92,
			"title": "store",
			"width": 197,
			"x": 2514,
			"y": 916
		},
		"qOjb0YWrrxBMcm8Tdq6dugy9wCalOlIY": {
			"height": 92,
			"title": "store",
			"width": 189,
			"x": 540,
			"y": -204
		},
		"qSCvKOc7iPZFcqeZQpaGXBK78uePoCH4": {
			"height": 172,
			"title": "right team",
			"width": 386,
			"x": 3548,
			"y": 409
		},
		"qjc10gsTz1g7dcjwxkFvKYjmUMqXV7n9": {
			"height": 172,
			"title": "back team",
			"width": 383,
			"x": 3383,
			"y": 1244
		},
		"rle4SGpDGpTSTDklYspp5KLZlgElmi2o": {
			"height": 92,
			"title": "store",
			"width": 174,
			"x": 537,
			"y": -451
		},
		"rmfjAWaXQNljHMTFVaD7bBxHUNu0jwMX": {
			"height": 92,
			"title": "store",
			"width": 180,
			"x": 539,
			"y": -285
		},
		"t72LotMsmoVi9PhjRj5BdkDLJJvYhlrY": {
			"height": 90,
			"title": "luaCondition",
			"width": 214,
			"x": 2987,
			"y": 1752
		},
		"vDGG7qCk2YA5gYJeI5BlflDOssFAdRW7": {
			"height": 90,
			"title": "luaCondition",
			"width": 242,
			"x": 3613,
			"y": 2528
		},
		"vXTitg0XQCvdnibyGGBw5U14QUB9mmrH": {
			"height": 60,
			"title": "sequence",
			"width": 143,
			"x": 2431,
			"y": 1763
		},
		"wUGJpsZUnpfPLtIMLdtQK1v446SHhzDZ": {
			"height": 172,
			"title": "Cavalry team",
			"width": 405,
			"x": 3271,
			"y": 2175
		},
		"wZ6seeajeZ0ivMj28FijmSWAPDCWePqM": {
			"height": 90,
			"title": "luaCondition",
			"width": 214,
			"x": 2475,
			"y": 287
		},
		"xkqsWDFbH8PbFjv7EAFFM0giww1ImV78": {
			"height": 92,
			"title": "store",
			"width": 197,
			"x": 2613,
			"y": 1886
		},
		"y7Qdwsf92UkATyL6MsxUkxLkbFkVgJYA": {
			"height": 172,
			"title": "left team",
			"width": 390,
			"x": 3711,
			"y": 2064
		},
		"zRLQoiuT9YqRSesPoKPHCs4t89GnKNXt": {
			"height": 90,
			"title": "luaCondition",
			"width": 214,
			"x": 3241,
			"y": 432
		},
		"zvhxpgyV9MFgk5Os4NZErQoMfocEvye3": {
			"height": 90,
			"title": "luaCondition",
			"width": 214,
			"x": 3300,
			"y": 927
		}
	},
	"roles": [ {
		"categories": [],
		"name": "Role 0"
	}, {
		"categories": [],
		"name": "Role 1"
	}, {
		"categories": [],
		"name": "Role 2"
	}, {
		"categories": [],
		"name": "Role 3"
	} ],
	"root": {
		"children": [ {
			"children": [],
			"id": "rle4SGpDGpTSTDklYspp5KLZlgElmi2o",
			"nodeType": "luaCommand",
			"parameters": [ {
				"name": "var",
				"value": "firstGroupReady"
			}, {
				"name": "value",
				"value": "false"
			}, {
				"name": "scriptName",
				"value": "store"
			} ],
			"scriptName": "store"
		}, {
			"children": [],
			"id": "DqD75gMHiJyIx604u1YbtSkTbM6HPgmK",
			"nodeType": "luaCommand",
			"parameters": [ {
				"name": "var",
				"value": "secondGroupReady"
			}, {
				"name": "value",
				"value": "false"
			}, {
				"name": "scriptName",
				"value": "store"
			} ],
			"scriptName": "store"
		}, {
			"children": [],
			"id": "rmfjAWaXQNljHMTFVaD7bBxHUNu0jwMX",
			"nodeType": "luaCommand",
			"parameters": [ {
				"name": "var",
				"value": "thirdGroupReady"
			}, {
				"name": "value",
				"value": "false"
			}, {
				"name": "scriptName",
				"value": "store"
			} ],
			"scriptName": "store"
		}, {
			"children": [],
			"id": "qOjb0YWrrxBMcm8Tdq6dugy9wCalOlIY",
			"nodeType": "luaCommand",
			"parameters": [ {
				"name": "var",
				"value": "fourthGroupReady"
			}, {
				"name": "value",
				"value": "false"
			}, {
				"name": "scriptName",
				"value": "store"
			} ],
			"scriptName": "store"
		}, {
			"children": [],
			"id": "S65aiP2BWAKbcIrY2WcmZo3rMazIA97b",
			"nodeType": "luaCommand",
			"parameters": [ {
				"name": "var",
				"value": "cavalryReady"
			}, {
				"name": "value",
				"value": "false"
			}, {
				"name": "scriptName",
				"value": "store"
			} ],
			"scriptName": "store"
		}, {
			"children": [],
			"id": "TdTBF6Vk2edr5Q0tTvJkxGh6f392dytp",
			"nodeType": "luaCommand",
			"parameters": [ {
				"name": "var",
				"value": "AAReady"
			}, {
				"name": "value",
				"value": "false"
			}, {
				"name": "scriptName",
				"value": "store"
			} ],
			"scriptName": "store"
		}, {
			"children": [ {
				"children": [ {
					"children": [ {
						"children": [],
						"id": "RbNx1BM7cWe0FzZzdWI9tIny2utVwI2i",
						"nodeType": "luaCommand",
						"parameters": [ {
							"name": "var",
							"value": "ConvoyReady"
						}, {
							"name": "value",
							"value": "nota_jd_convoy.ConvoyInPosition(firstGroupReady, secondGroupReady, thirdGroupReady, fourthGroupReady, cavalryReady, AAReady)"
						}, {
							"name": "scriptName",
							"value": "store"
						} ],
						"scriptName": "store"
					} ],
					"id": "SbLwt9ldimtXf2leiOXv30jM2aW7uBgL",
					"nodeType": "repeat",
					"parameters": []
				}, {
					"children": [ {
						"children": [],
						"id": "dG7eBUw2VS1zsdTXf7giepXtYeIjoixb",
						"nodeType": "luaCommand",
						"parameters": [ {
							"name": "var",
							"value": "orderedDangers"
						}, {
							"name": "value",
							"value": "nota_jd_convoy.biggestThreat(groupDanger)"
						}, {
							"name": "scriptName",
							"value": "store"
						} ],
						"scriptName": "store"
					}, {
						"children": [ {
							"children": [],
							"id": "9KmHDcjYeCFil0plQx1Qjv2HUrwhx1xq",
							"nodeType": "success",
							"parameters": []
						}, {
							"children": [ {
								"children": [ {
									"children": [ {
										"children": [ {
											"children": [ {
												"children": [ {
													"children": [],
													"id": "HULCSRtVfaES3OJWwnRXdMN0JBaqNP69",
													"nodeType": "reference",
													"parameters": [ {
														"name": "behaviourName",
														"value": "nota_jd_convoy.team_move"
													} ],
													"referenceInputs": [ {
														"name": "teamDefinition",
														"value": "upGroup"
													}, {
														"name": "squadFormationSpotData",
														"value": "squadFormation.bottom"
													}, {
														"name": "pointManInPosition",
														"value": "firstGroupReady"
													} ],
													"referenceOutputs": []
												}, {
													"children": [ {
														"children": [],
														"id": "qSCvKOc7iPZFcqeZQpaGXBK78uePoCH4",
														"nodeType": "reference",
														"parameters": [ {
															"name": "behaviourName",
															"value": "nota_jd_convoy.team_move"
														} ],
														"referenceInputs": [ {
															"name": "teamDefinition",
															"value": "upGroup"
														}, {
															"name": "squadFormationSpotData",
															"value": "squadFormation.right"
														}, {
															"name": "pointManInPosition",
															"value": "firstGroupReady"
														} ],
														"referenceOutputs": []
													}, {
														"children": [],
														"id": "OuWjXnR9pGb0c4WNFVM88YmQ7qHe5bkL",
														"nodeType": "reference",
														"parameters": [ {
															"name": "behaviourName",
															"value": "nota_jd_convoy.team_move"
														} ],
														"referenceInputs": [ {
															"name": "teamDefinition",
															"value": "upGroup"
														}, {
															"name": "squadFormationSpotData",
															"value": "squadFormation.left"
														}, {
															"name": "pointManInPosition",
															"value": "firstGroupReady"
														} ],
														"referenceOutputs": []
													} ],
													"id": "zRLQoiuT9YqRSesPoKPHCs4t89GnKNXt",
													"nodeType": "luaCondition",
													"parameters": [ {
														"name": "expression",
														"value": "orderedDangers[2] == 3"
													}, {
														"name": "repeat",
														"value": "true"
													} ]
												} ],
												"id": "C2JWAzMp7BDNRqS9LhhrwVkb4qLZQqdx",
												"nodeType": "luaCondition",
												"parameters": [ {
													"name": "expression",
													"value": "orderedDangers[2] == 2"
												}, {
													"name": "repeat",
													"value": "true"
												} ]
											}, {
												"children": [],
												"id": "XHXDODAiCzJcpOyZBQWCK9p0hb34iXgX",
												"nodeType": "reference",
												"parameters": [ {
													"name": "behaviourName",
													"value": "nota_jd_convoy.team_move"
												} ],
												"referenceInputs": [ {
													"name": "teamDefinition",
													"value": "upGroup"
												}, {
													"name": "squadFormationSpotData",
													"value": "squadFormation.up"
												}, {
													"name": "pointManInPosition",
													"value": "firstGroupReady"
												} ],
												"referenceOutputs": []
											} ],
											"id": "wZ6seeajeZ0ivMj28FijmSWAPDCWePqM",
											"nodeType": "luaCondition",
											"parameters": [ {
												"name": "expression",
												"value": "orderedDangers[3] == 1"
											}, {
												"name": "repeat",
												"value": "true"
											} ]
										}, {
											"children": [],
											"id": "cbGWVdHGbrFPN8dB7pNV7UCeSAsyCyq3",
											"nodeType": "luaCommand",
											"parameters": [ {
												"name": "var",
												"value": "firstGroupReady"
											}, {
												"name": "value",
												"value": "true"
											}, {
												"name": "scriptName",
												"value": "store"
											} ],
											"scriptName": "store"
										} ],
										"id": "AcUYh1XKtLTYooB0nX07EbyY5vYFWNp1",
										"nodeType": "sequence",
										"parameters": []
									} ],
									"id": "hzo049IaiYFcZr7TPyl4crDb7b5EJNxI",
									"nodeType": "repeat",
									"parameters": []
								}, {
									"children": [ {
										"children": [ {
											"children": [ {
												"children": [ {
													"children": [],
													"id": "UFKSygq1NExaWJba8aDZXBkA4TS8jIOY",
													"nodeType": "reference",
													"parameters": [ {
														"name": "behaviourName",
														"value": "nota_jd_convoy.team_move"
													} ],
													"referenceInputs": [ {
														"name": "teamDefinition",
														"value": "bottomGroup"
													}, {
														"name": "squadFormationSpotData",
														"value": "squadFormation.up"
													}, {
														"name": "pointManInPosition",
														"value": "secondGroupReady"
													} ],
													"referenceOutputs": []
												}, {
													"children": [ {
														"children": [],
														"id": "KzP7A3TrR77pqJr6ZnN1uh5rR6xiMFmr",
														"nodeType": "reference",
														"parameters": [ {
															"name": "behaviourName",
															"value": "nota_jd_convoy.team_move"
														} ],
														"referenceInputs": [ {
															"name": "teamDefinition",
															"value": "bottomGroup"
														}, {
															"name": "squadFormationSpotData",
															"value": "squadFormation.right"
														}, {
															"name": "pointManInPosition",
															"value": "secondGroupReady"
														} ],
														"referenceOutputs": []
													}, {
														"children": [],
														"id": "FqUn0c17B17fDCu4bfhLmsWg6Ci5ov5K",
														"nodeType": "reference",
														"parameters": [ {
															"name": "behaviourName",
															"value": "nota_jd_convoy.team_move"
														} ],
														"referenceInputs": [ {
															"name": "teamDefinition",
															"value": "bottomGroup"
														}, {
															"name": "squadFormationSpotData",
															"value": "squadFormation.left"
														}, {
															"name": "pointManInPosition",
															"value": "secondGroupReady"
														} ],
														"referenceOutputs": []
													} ],
													"id": "zvhxpgyV9MFgk5Os4NZErQoMfocEvye3",
													"nodeType": "luaCondition",
													"parameters": [ {
														"name": "expression",
														"value": "orderedDangers[2] == 3"
													}, {
														"name": "repeat",
														"value": "true"
													} ]
												} ],
												"id": "HZ97OvQukWVjsM1w3FX8v1htewyyAH9R",
												"nodeType": "luaCondition",
												"parameters": [ {
													"name": "expression",
													"value": "orderedDangers[2] == 1"
												}, {
													"name": "repeat",
													"value": "true"
												} ]
											}, {
												"children": [],
												"id": "HdnUdhpK8mh73IgD8i1lU1obl5iMgzaU",
												"nodeType": "reference",
												"parameters": [ {
													"name": "behaviourName",
													"value": "nota_jd_convoy.team_move"
												} ],
												"referenceInputs": [ {
													"name": "teamDefinition",
													"value": "bottomGroup"
												}, {
													"name": "squadFormationSpotData",
													"value": "squadFormation.bottom"
												}, {
													"name": "pointManInPosition",
													"value": "secondGroupReady"
												} ],
												"referenceOutputs": []
											} ],
											"id": "2WP2Ax4krlqEKkJ6OZAY8yxkSICtn89E",
											"nodeType": "luaCondition",
											"parameters": [ {
												"name": "expression",
												"value": "orderedDangers[3] == 2"
											}, {
												"name": "repeat",
												"value": "true"
											} ]
										}, {
											"children": [],
											"id": "nzy2qVrtpyDds21mqW00GBLt7bMXYmj4",
											"nodeType": "luaCommand",
											"parameters": [ {
												"name": "var",
												"value": "secondGroupReady"
											}, {
												"name": "value",
												"value": "true"
											}, {
												"name": "scriptName",
												"value": "store"
											} ],
											"scriptName": "store"
										} ],
										"id": "bxucWQdRX82VnyBMBnybCKjiesReoFGy",
										"nodeType": "sequence",
										"parameters": []
									} ],
									"id": "1rMVUn5OSiNAd7hOEYNyZTbUFXH1MG1V",
									"nodeType": "repeat",
									"parameters": []
								}, {
									"children": [ {
										"children": [ {
											"children": [ {
												"children": [ {
													"children": [],
													"id": "qjc10gsTz1g7dcjwxkFvKYjmUMqXV7n9",
													"nodeType": "reference",
													"parameters": [ {
														"name": "behaviourName",
														"value": "nota_jd_convoy.team_move"
													} ],
													"referenceInputs": [ {
														"name": "teamDefinition",
														"value": "rightGroup"
													}, {
														"name": "squadFormationSpotData",
														"value": "squadFormation.up"
													}, {
														"name": "pointManInPosition",
														"value": "thirdGroupReady"
													} ],
													"referenceOutputs": []
												}, {
													"children": [ {
														"children": [],
														"id": "DLL6T71OU2gvorSYEPBN0Dx2MPrSyLmp",
														"nodeType": "reference",
														"parameters": [ {
															"name": "behaviourName",
															"value": "nota_jd_convoy.team_move"
														} ],
														"referenceInputs": [ {
															"name": "teamDefinition",
															"value": "rightGroup"
														}, {
															"name": "squadFormationSpotData",
															"value": "squadFormation.bottom"
														}, {
															"name": "pointManInPosition",
															"value": "thirdGroupReady"
														} ],
														"referenceOutputs": []
													}, {
														"children": [],
														"id": "SNRuXGXHDmTxc7UOjvf6srsNsy71f7mh",
														"nodeType": "reference",
														"parameters": [ {
															"name": "behaviourName",
															"value": "nota_jd_convoy.team_move"
														} ],
														"referenceInputs": [ {
															"name": "teamDefinition",
															"value": "rightGroup"
														}, {
															"name": "squadFormationSpotData",
															"value": "squadFormation.left"
														}, {
															"name": "pointManInPosition",
															"value": "thirdGroupReady"
														} ],
														"referenceOutputs": []
													} ],
													"id": "m05I1qhZYqjZe3myKMsQLhbUjbtOZStN",
													"nodeType": "luaCondition",
													"parameters": [ {
														"name": "expression",
														"value": "orderedDangers[2] == 2"
													}, {
														"name": "repeat",
														"value": "true"
													} ]
												} ],
												"id": "S9sCQuKBe0nQ6kacH55ViuoNctvmXlhC",
												"nodeType": "luaCondition",
												"parameters": [ {
													"name": "expression",
													"value": "orderedDangers[2] == 1"
												}, {
													"name": "repeat",
													"value": "true"
												} ]
											}, {
												"children": [],
												"id": "AY35NzVoay0WsW3xzuBtlfwDfQk20mm2",
												"nodeType": "reference",
												"parameters": [ {
													"name": "behaviourName",
													"value": "nota_jd_convoy.team_move"
												} ],
												"referenceInputs": [ {
													"name": "teamDefinition",
													"value": "rightGroup"
												}, {
													"name": "squadFormationSpotData",
													"value": "squadFormation.right"
												}, {
													"name": "pointManInPosition",
													"value": "thirdGroupReady"
												} ],
												"referenceOutputs": []
											} ],
											"id": "CDi0M6UBgbV6Y0XmJlC92JoYCL1X2zVL",
											"nodeType": "luaCondition",
											"parameters": [ {
												"name": "expression",
												"value": "orderedDangers[3] == 3"
											}, {
												"name": "repeat",
												"value": "true"
											} ]
										}, {
											"children": [],
											"id": "0M23hpj1lospdXq247StaLSpTNVA29JM",
											"nodeType": "luaCommand",
											"parameters": [ {
												"name": "var",
												"value": "thirdGroupReady"
											}, {
												"name": "value",
												"value": "true"
											}, {
												"name": "scriptName",
												"value": "store"
											} ],
											"scriptName": "store"
										} ],
										"id": "jvaAkffMK3eF9Yc8U2b6RNR5lMfClWyw",
										"nodeType": "sequence",
										"parameters": []
									} ],
									"id": "EJNdOXTXynwvZGcgxbOE5Wmy5bS0c1vS",
									"nodeType": "repeat",
									"parameters": []
								}, {
									"children": [ {
										"children": [ {
											"children": [ {
												"children": [ {
													"children": [],
													"id": "Bye26LObUL8ybGtxAFkei7l0ac9JsWZp",
													"nodeType": "reference",
													"parameters": [ {
														"name": "behaviourName",
														"value": "nota_jd_convoy.team_move"
													} ],
													"referenceInputs": [ {
														"name": "teamDefinition",
														"value": "leftGroup"
													}, {
														"name": "squadFormationSpotData",
														"value": "squadFormation.up"
													}, {
														"name": "pointManInPosition",
														"value": "fourthGroupReady"
													} ],
													"referenceOutputs": []
												}, {
													"children": [ {
														"children": [],
														"id": "AXDuIR0pluFq75SGw1uRcVxE2ukFjgBW",
														"nodeType": "reference",
														"parameters": [ {
															"name": "behaviourName",
															"value": "nota_jd_convoy.team_move"
														} ],
														"referenceInputs": [ {
															"name": "teamDefinition",
															"value": "leftGroup"
														}, {
															"name": "squadFormationSpotData",
															"value": "squadFormation.bottom"
														}, {
															"name": "pointManInPosition",
															"value": "fourthGroupReady"
														} ],
														"referenceOutputs": []
													}, {
														"children": [],
														"id": "y7Qdwsf92UkATyL6MsxUkxLkbFkVgJYA",
														"nodeType": "reference",
														"parameters": [ {
															"name": "behaviourName",
															"value": "nota_jd_convoy.team_move"
														} ],
														"referenceInputs": [ {
															"name": "teamDefinition",
															"value": "leftGroup"
														}, {
															"name": "squadFormationSpotData",
															"value": "squadFormation.right"
														}, {
															"name": "pointManInPosition",
															"value": "fourthGroupReady"
														} ],
														"referenceOutputs": []
													} ],
													"id": "LlNMCTuDqPwrVK0VhIDoDvXgihSxFUWY",
													"nodeType": "luaCondition",
													"parameters": [ {
														"name": "expression",
														"value": "orderedDangers[2] == 2"
													}, {
														"name": "repeat",
														"value": "true"
													} ]
												} ],
												"id": "t72LotMsmoVi9PhjRj5BdkDLJJvYhlrY",
												"nodeType": "luaCondition",
												"parameters": [ {
													"name": "expression",
													"value": "orderedDangers[2] == 1"
												}, {
													"name": "repeat",
													"value": "true"
												} ]
											}, {
												"children": [],
												"id": "6OEvCgJvLymtKPYtoaCoOk0ttSQEJQIc",
												"nodeType": "reference",
												"parameters": [ {
													"name": "behaviourName",
													"value": "nota_jd_convoy.team_move"
												} ],
												"referenceInputs": [ {
													"name": "teamDefinition",
													"value": "leftGroup"
												}, {
													"name": "squadFormationSpotData",
													"value": "squadFormation.left"
												}, {
													"name": "pointManInPosition",
													"value": "fourthGroupReady"
												} ],
												"referenceOutputs": []
											} ],
											"id": "HSt0aNOTd7tFvR52tjAgRxrtZCrw7XAt",
											"nodeType": "luaCondition",
											"parameters": [ {
												"name": "expression",
												"value": "orderedDangers[3] == 4"
											}, {
												"name": "repeat",
												"value": "true"
											} ]
										}, {
											"children": [],
											"id": "xkqsWDFbH8PbFjv7EAFFM0giww1ImV78",
											"nodeType": "luaCommand",
											"parameters": [ {
												"name": "var",
												"value": "fourthGroupReady"
											}, {
												"name": "value",
												"value": "true"
											}, {
												"name": "scriptName",
												"value": "store"
											} ],
											"scriptName": "store"
										} ],
										"id": "vXTitg0XQCvdnibyGGBw5U14QUB9mmrH",
										"nodeType": "sequence",
										"parameters": []
									} ],
									"id": "kQhneubp189ZghsuIzcTXddT4KWAUZAP",
									"nodeType": "repeat",
									"parameters": []
								} ],
								"id": "VFXS3qP0pFQzXUN7VokOdHHxq0K3fJmO",
								"nodeType": "parallel",
								"parameters": [ {
									"name": "mode",
									"value": "all-success"
								} ]
							} ],
							"id": "GJKTaP9nbwdvM4vNXn4HtjnW0OcOlQWK",
							"nodeType": "sequence",
							"parameters": []
						}, {
							"children": [ {
								"children": [ {
									"children": [ {
										"children": [ {
											"children": [],
											"id": "wUGJpsZUnpfPLtIMLdtQK1v446SHhzDZ",
											"nodeType": "reference",
											"parameters": [ {
												"name": "behaviourName",
												"value": "nota_jd_convoy.team_move"
											} ],
											"referenceInputs": [ {
												"name": "teamDefinition",
												"value": "cavalryGroup"
											}, {
												"name": "squadFormationSpotData",
												"value": "squadFormation.upCavalry"
											}, {
												"name": "pointManInPosition",
												"value": "cavalryReady"
											} ],
											"referenceOutputs": []
										}, {
											"children": [ {
												"children": [],
												"id": "Hr0YdhNFBcB6Qb67BuA6oXNGbtVRHjDa",
												"nodeType": "reference",
												"parameters": [ {
													"name": "behaviourName",
													"value": "nota_jd_convoy.team_move"
												} ],
												"referenceInputs": [ {
													"name": "teamDefinition",
													"value": "cavalryGroup"
												}, {
													"name": "squadFormationSpotData",
													"value": "squadFormation.bottomCavalry"
												}, {
													"name": "pointManInPosition",
													"value": "cavalryReady"
												} ],
												"referenceOutputs": []
											}, {
												"children": [ {
													"children": [],
													"id": "BX74bGPG3gM5fNwoGAGWhkfTyYeZmdqX",
													"nodeType": "reference",
													"parameters": [ {
														"name": "behaviourName",
														"value": "nota_jd_convoy.team_move"
													} ],
													"referenceInputs": [ {
														"name": "teamDefinition",
														"value": "cavalryGroup"
													}, {
														"name": "squadFormationSpotData",
														"value": "squadFormation.rightCavalry"
													}, {
														"name": "pointManInPosition",
														"value": "cavalryReady"
													} ],
													"referenceOutputs": []
												}, {
													"children": [],
													"id": "SX8ArmZGgXJ1bcmLQnajyo8UEy1N89zs",
													"nodeType": "reference",
													"parameters": [ {
														"name": "behaviourName",
														"value": "nota_jd_convoy.team_move"
													} ],
													"referenceInputs": [ {
														"name": "teamDefinition",
														"value": "cavalryGroup"
													}, {
														"name": "squadFormationSpotData",
														"value": "squadFormation.leftCavalry"
													}, {
														"name": "pointManInPosition",
														"value": "cavalryReady"
													} ],
													"referenceOutputs": []
												} ],
												"id": "vDGG7qCk2YA5gYJeI5BlflDOssFAdRW7",
												"nodeType": "luaCondition",
												"parameters": [ {
													"name": "expression",
													"value": "orderedDangers[1] == 3"
												}, {
													"name": "repeat",
													"value": "true"
												} ]
											} ],
											"id": "SJ24PnBFBFqkuBtNPF9Jw5GcAwc2gEYS",
											"nodeType": "luaCondition",
											"parameters": [ {
												"name": "expression",
												"value": "orderedDangers[1] == 2"
											}, {
												"name": "repeat",
												"value": "true"
											} ]
										} ],
										"id": "nv5sCgze34dM0mdzkgqCNcZ00IB0Cq1W",
										"nodeType": "luaCondition",
										"parameters": [ {
											"name": "expression",
											"value": "orderedDangers[1] == 1"
										}, {
											"name": "repeat",
											"value": "true"
										} ]
									}, {
										"children": [],
										"id": "J3Ypr2Af7dsF96foKqsOM3lJyt3F5hPQ",
										"nodeType": "luaCommand",
										"parameters": [ {
											"name": "var",
											"value": "cavalryReady"
										}, {
											"name": "value",
											"value": "true"
										}, {
											"name": "scriptName",
											"value": "store"
										} ],
										"scriptName": "store"
									} ],
									"id": "broUkw6KthElXlPMhskOBq39POeUBm8b",
									"nodeType": "sequence",
									"parameters": []
								} ],
								"id": "4oEZMcG8T0PmU2mQKxAMNHt9WXM3xWma",
								"nodeType": "repeat",
								"parameters": []
							} ],
							"id": "i94WCD3VYs1202BMnwOM1nQHkydOTHQ4",
							"nodeType": "sequence",
							"parameters": []
						}, {
							"children": [ {
								"children": [ {
									"children": [ {
										"children": [],
										"id": "RWQj9kQ9ajMTECXAZGYxETKLroKcsT9r",
										"nodeType": "reference",
										"parameters": [ {
											"name": "behaviourName",
											"value": "nota_jd_convoy.team_move"
										} ],
										"referenceInputs": [ {
											"name": "teamDefinition",
											"value": "AAGroup"
										}, {
											"name": "squadFormationSpotData",
											"value": "squadFormation.upAA"
										}, {
											"name": "pointManInPosition",
											"value": "AAReady"
										} ],
										"referenceOutputs": []
									}, {
										"children": [],
										"id": "GAHaXGMlwAn1JlI1442hfslcrFDBfZnP",
										"nodeType": "luaCommand",
										"parameters": [ {
											"name": "var",
											"value": "AAReady"
										}, {
											"name": "value",
											"value": "true"
										}, {
											"name": "scriptName",
											"value": "store"
										} ],
										"scriptName": "store"
									} ],
									"id": "VcBCz0EaJAlFF7WITztNV4V8JevPvrzx",
									"nodeType": "sequence",
									"parameters": []
								} ],
								"id": "kNqEpUmLRl60xmOMjRVC6BJsyfsJv5YP",
								"nodeType": "repeat",
								"parameters": []
							} ],
							"id": "gPIN7pBJV97wg4bBykMvwizkTc6ZOrgr",
							"nodeType": "sequence",
							"parameters": []
						} ],
						"id": "WuHCmFPyKEmGvJq9mRwW7O1lqKFRZ4b2",
						"nodeType": "roleSplit",
						"parameters": [ {
							"name": "mode",
							"value": "all-success"
						} ]
					} ],
					"id": "HGSFthtEFTVu8LYjYuh2aAD25Rea9HEd",
					"nodeType": "sequence",
					"parameters": []
				} ],
				"id": "6lVIMEqCQeTM4ndMrjGp8qR8HQAnIto7",
				"nodeType": "parallel",
				"parameters": [ {
					"name": "mode",
					"value": "all-success"
				} ]
			} ],
			"id": "kM3JCxCR9mtrzTBo1ByRhVZ7fwo5uiOO",
			"nodeType": "repeat",
			"parameters": []
		} ],
		"id": "95Pxy5a5HwZzbPe7fEbJ00bDcCKMcvUh",
		"nodeType": "sequence",
		"parameters": []
	}
}